{
	"swagger": "2.0",
	"info": {
		"version": "0.1.0",
		"title": "API Scrutor®",
		"description": "API de gestion de log pour les scripts de transway"
	},
	"schemes": [
		"https"
	],
	"basePath": "/api/",
	"securityDefinitions": {
		"Bearer": {
			"type": "apiKey",
			"name": "Authorization",
			"in": "header"
		}
	},
	"consumes": [
  		"application/json"
	],
	"produces": [
  		"application/json"
	],
	"paths": {
		"/auth/register": {
			"post": {
				"summary": "Create new user",
				"tags": ["Unsecured"],
				"parameters": [{
					"name": "body",
					"in": "body",
					"description": "Name, email and password",
					"required": true,
					"schema": {
						"type": "object",
						"$ref": "#/definitions/user"

					}
				}],
				"responses": {
					"200": {
						"description": "Success will return the created user without password",
						"schema": {
							"type": "object",
							"properties": {
								"user": {
									"type": "object",
									"properties": {
										"email": {
											"type": "string"
										},
										"fullName": {
											"type": "string"
										}
									}
								}
							}
						}
					},
					"409": {
						"description": "A user already used this email",
						"schema": {
							"type": "object",
							"properties": {
								"message": {
									"type": "string",
									"description": "Contain details about error"
								}
							}
						}
					},
					"500": {
						"description": "Error when saving in bdd",
						"schema": {
							"type": "object",
							"properties": {
								"message": {
									"type": "string",
									"description": "Contain details about error"
								}
							}
						}
					},
					"400": {
						"description": "User data validator failed",
						"schema": {
							"type": "object",
							"properties": {
								"message": {
									"type": "string",
									"description": "Contain details about error"
								}
							}
						}
					}
				}
			}
		},
		"/auth/sign_in": {
			"post": {
				"summary": "Create new user",
				"tags": ["Unsecured"],
				"parameters": [{
					"name": "body",
					"in": "body",
					"description": "Email and password",
					"required": true,
					"schema": {
						"type": "object",
						"properties": {
							"email": {
								"type": "string"
							},
							"password": {
								"type": "string"
							}
						}
					}
				}],
				"responses": {
					"200": {
						"description": "Success will return the json web token.",
						"schema": {
  							"type": "object",
							"properties": {
								"token": {
									"type": "string",
									 "description": "Json Web Token containing user email, fullName and id"
								},
								"user": {
									"type": "object",
									"description": "aze",
									"properties": {
  										"email": {
											"type": "string",
											"description": "User's email"
										},
										"name": {
											"type": "string",
											"description": "User's name"
										},
										"id": {
											"type": "string",
											"description": "User's id"
										}
									}
								}
							}
						}
					},
					"400": {
						"description": "Data validator failed",
						"schema": {
							"type": "object",
							"properties": {
								"message": {
									"type": "string",
									"description": "Details of which validator failed (email validator or password validator)"
								}
							}
						}
					},
					"404": {
						"description": "No user with provided email",
						"schema": {
							"type": "object",
							"properties": {
								"message": {
									"type": "string",
									"description": "Error details"
								}
							}
						}
					},
					"401": {
						"description": "User find but password wrong",
						"schema": {
  							"type": "object",
							"properties": {
								"message": {
									"type": "string",
									"description": "Error details"
								}
							}
						}
					}
				}
			}
		},
		"/logReport/": {
			"post": {
				"summary": "Create a logReport",
				"tags": ["Secured by token"],
				"parameters": [{
					"name": "body",
					"in": "body",
					"description": "Log report data",
					"required": true,
					"schema": {
						"type": "object",
						"$ref": "#/definitions/logReport"
					}
				}],
				"responses": {
  					"200": {
						"description": "Object succeffully created",
						"schema": {
							"type": "object",
							"$ref": "#/definitions/logReport"
						}
					},
					"400": {
						"description": "Data validator failed",
						"schema": {
  							"type": "object",
							"properties": {
								"message": {
									"type": "string",
									"description": "Details about validator faillure"
								}
							}
						}
					},
					"500": {
						"description": "Internal server error",
						"schema": {
  							"type": "object",
							"properties": {
								"message": {
									"type": "string"
								}
							}
						}
					}
				},
				"security": [{
					"Bearer": []
				}]
			},
			"get": {
				"summary": "Get all logReport",
				"tags": ["Secured by token"],
				"responses": {
					"200": {
						"description": "Log reports have been found and sended",
						"schema": {
  							"type": "object",
							"properties": {
								"logReports": {
									"type": "array",
									"items": {
										"$ref": "#/definitions/logReport"
									}
								}
							}
						}
					},
					"404": {
						"description": "No logReports founds",
						"schema": {
  							"type": "object",
							"properties": {
								"message": {
									"type": "string"
								}
							}
						}
					}
				},
				"security": [{
					"Bearer": []
				}]
			}
		},
		"/logReport/{id}": {
			"parameters": [{
				"in": "path",
				"name": "id",
				"type": "string",
				"description": "Id of the logReport we want to update",
				"required": true
			}],
			"get": {
				"summary": "Get a logReport by his id",
				"tags": ["Secured by token"],
				"responses": {
					"200": {
						"description": "LogReport found and return in response",
						"schema": {
  							"type": "object",
							"$ref": "#/definitions/logReport"
						}
					},
					"400": {
						"description": "Data valivator failed",
						"schema": {
  							"type": "object",
							"properties": {
								"message": {
									"type": "string",
									"description": "Return which validator failed"
								}
							}
						}
					},
					"404": {
						"description": "No logReport with this id",
						"schema": {
  							"type": "object",
							"properties": {
								"message": {
									"type": "string",
									"description": "Error details"
								}
							}
						}
					}
				},
				"security": [{
					"Bearer": []
				}]
			},
			"delete": {
				"summary": "Delete a logReport by his id",
				"tags": ["Secured by token"],
				"responses": {
					"200": {
						"description": "LogReport found and deleted",
						"schema": {
							"type": "object",
							"properties": {
								"message": {
									"type": "string"
								}
							}
						}
					},
					"400": {
						"description": "Data validator failed",
						"schema": {
  							"type": "object",
							"properties": {
								"message": {
									"type": "string",
									"description": "Details about which validator failed"
								}
							}
						}
					},
					"404": {
						"description": "LogReport not found with id provided",
						"schema": {
							"type": "object",
							"properties": {
								"message": {
									"type": "string",
									"description": "Error details"
								}
							}
						}
					},
					"500": {
						"description": "Internal server error",
						"schema": {
  							"type": "object",
							"properties": {
								"message": {
									"type": "string",
									"description": "Error detail"
								}
							}
						}
					}
				},
				"security": [{
					"Bearer": []
				}]
			},
			"put": {
				"summary": "Update a logReport by his id",
				"tags": ["Secured by token"],
				"parameters": [{
					"in": "body",
					"name": "body",
					"schema": {
						"type": "object",
						"properties": {
							"processName": {
								"type": "string"
							},
							"logType": {
								"type": "string"
							},
							"throwDate": {
								"type": "string"
							},
							"details": {
								"type": "string"
							},
							"error": {
								"type": "boolean"
							}
						}
					}
				}],
			  	"responses": {
					"200": {
						"description": "LogReport found and modified",
						"schema": {
							"type": "object",
							"$ref": "#/definitions/logReport"
						}
					},
					"400": {
						"description": "Data validator failed",
						"schema": {
  							"type": "object",
							"properties": {
								"message": {
									"type": "string",
									"description": "Detail of which validator failed"
								}
							}
						}
					},
					"404": {
						"description": "LogReport not found with this id",
						"schema": {
  							"type": "object",
							"properties": {
								"message": {
									"type": "string"
								}
							}
						}
					}
				},
				"security": [{
					"Bearer": []
				}]
			}
		},
		"/process/": {
			"post": {
				"summary": "Create a process",
				"tags": ["Secured by token"],
				"parameters": [{
					"name": "body",
					"in": "body",
					"description": "Process data",
					"required": true,
					"schema": {
						"type": "object",
						"$ref": "#/definitions/process"
					}
				}],
				"responses": {
					"200": {
						"description": "Object succeffully created",
						"schema": {
							"type": "object",
							"$ref": "#/definitions/process"
						}
					},
					"400": {
						"description": "Data validator failed",
						"schema": {
							"type": "object",
							"properties": {
								"message": {
									"type": "string",
									"description": "Details about validator faillure"
								}
							}
						}
					},
					"500": {
						"description": "Internal server error",
						"schema": {
							"type": "object",
							"properties": {
								"message": {
									"type": "string"
								}
							}
						}
					}
				},
				"security": [{
					"Bearer": []
				}]
			},
			"get": {
				"summary": "Get all processes",
				"tags": ["Secured by token"],
				"responses": {
					"200": {
						"description": "Processes have been found and sended",
						"schema": {
							"type": "object",
							"properties": {
								"logReports": {
									"type": "array",
									"items": {
										"$ref": "#/definitions/process"
									}
								}
							}
						}
					},
					"404": {
						"description": "No processes founds",
						"schema": {
							"type": "object",
							"properties": {
								"message": {
									"type": "string"
								}
							}
						}
					}
				},
				"security": [{
					"Bearer": []
				}]
			}
		},
		"/process/{id}": {
			"parameters": [{
				"name": "id",
				"in": "path",
				"type": "string",
				"description": "Id of the process searched",
				"required": true
			}],
			"get": {
				"summary": "Get a process by his id",
				"tags": ["Secured by token"],
				"responses": {
					"200": {
						"description": "Process found and return in response",
						"schema": {
							"type": "object",
							"$ref": "#/definitions/process"
						}
					},
					"400": {
						"description": "Data valivator failed",
						"schema": {
							"type": "object",
							"properties": {
								"message": {
									"type": "string",
									"description": "Return which validator failed"
								}
							}
						}
					},
					"404": {
						"description": "No process with this id",
						"schema": {
							"type": "object",
							"properties": {
								"message": {
									"type": "string",
									"description": "Error details"
								}
							}
						}
					}
				},
				"security": [{
					"Bearer": []
				}]
			},
			"delete": {
				"summary": "Delete a process by his id",
				"tags": ["Secured by token"],
				"responses": {
					"200": {
						"description": "Process found and deleted",
						"schema": {
							"type": "object",
							"properties": {
								"message": {
									"type": "string"
								}
							}
						}
					},
					"400": {
						"description": "Data validator failed",
						"schema": {
							"type": "object",
							"properties": {
								"message": {
									"type": "string",
									"description": "Details about which validator failed"
								}
							}
						}
					},
					"404": {
						"description": "Process not found with id provided",
						"schema": {
							"type": "object",
							"properties": {
								"message": {
									"type": "string",
									"description": "Error details"
								}
							}
						}
					},
					"500": {
						"description": "Internal server error",
						"schema": {
							"type": "object",
							"properties": {
								"message": {
									"type": "string",
									"description": "Error detail"
								}
							}
						}
					}
				},
				"security": [{
					"Bearer": []
				}]
			},
			"put": {
				"summary": "Update a process by his id",
				"tags": ["Secured by token"],
				"parameters": [{
					"name": "body",
					"in": "body",
					"description": "Date of the process we want to update",
					"required": true,
					"schema": {
						"type": "object",
						"properties": {
							"processName": {
								"type": "string"
							},
							"projectName": {
								"type": "string"
							},
							"processDescription": {
								"type": "string"
							}
						}
					}
				}],
				"responses": {
					"200": {
						"description": "Process found and modified",
						"schema": {
							"type": "object",
							"$ref": "#/definitions/process"
						}
					},
					"400": {
						"description": "Data validator failed",
						"schema": {
							"type": "object",
							"properties": {
								"message": {
									"type": "string",
									"description": "Detail of which validator failed"
								}
							}
						}
					},
					"404": {
						"description": "Process not found with this id",
						"schema": {
							"type": "object",
							"properties": {
								"message": {
									"type": "string"
								}
							}
						}
					}
				},
				"security": [{
					"Bearer": []
				}]
			}
		},
		"/process/{id}/logReports": {
			"parameters": [{
				"name": "id",
				"in": "path",
				"type": "string",
				"description": "Id of the project",
				"required": true
			}],
			"get": {
				"summary": "Get all logReports of a process",
				"tags": ["Secured by token"],
				"responses": {
					"200": {
						"description": "Project found and return in response",
						"schema": {
							"type": "object",
							"properties": {
								"logReports": {
									"type": "array",
									"items": {
										"$ref": "#/definitions/logReport"
									}
								}
							}
						}
					},
					"400": {
						"description": "Data valivator failed",
						"schema": {
							"type": "object",
							"properties": {
								"message": {
									"type": "string",
									"description": "Return which validator failed"
								}
							}
						}
					},
					"404": {
						"description": "No project with this id",
						"schema": {
							"type": "object",
							"properties": {
								"message": {
									"type": "string",
									"description": "Error details"
								}
							}
						}
					}
				},
				"security": [{
					"Bearer": []
				}]
			}
		},
		"/process/{id}/logReports/byDate/": {
			"parameters": [{
				"name": "id",
				"in": "path",
				"type": "string",
				"description": "Id of the project",
				"required": true
			}],
			"get": {
				"summary": "Get all logReports of a process for the current day",
				"tags": ["Secured by token"],
				"responses": {
					"200": {
						"description": "Project found and return in response",
						"schema": {
							"type": "object",
							"properties": {
								"logReports": {
									"type": "array",
									"items": {
										"$ref": "#/definitions/logReport"
									}
								}
							}
						}
					},
					"400": {
						"description": "Data valivator failed",
						"schema": {
							"type": "object",
							"properties": {
								"message": {
									"type": "string",
									"description": "Return which validator failed"
								}
							}
						}
					},
					"404": {
						"description": "No project with this id",
						"schema": {
							"type": "object",
							"properties": {
								"message": {
									"type": "string",
									"description": "Error details"
								}
							}
						}
					}
				},
				"security": [{
					"Bearer": []
				}]
			}
		},
		"/process/{id}/logReports/byDate/{date}": {
			"parameters": [{
					"name": "id",
					"in": "path",
					"type": "string",
					"description": "Id of the project",
					"required": true
				},
				{
					"name": "date",
					"in": "path",
					"type": "string",
					"description": "Date in format : 'yyyy-mm-dd'",
					"required": true
				}],
			"get": {
				"summary": "Get all logReports of a process for the precise day",
				"tags": ["Secured by token"],
				"responses": {
					"200": {
						"description": "Project found and return in response",
						"schema": {
							"type": "object",
							"properties": {
								"logReports": {
									"type": "array",
									"items": {
										"$ref": "#/definitions/logReport"
									}
								}
							}
						}
					},
					"400": {
						"description": "Data valivator failed",
						"schema": {
							"type": "object",
							"properties": {
								"message": {
									"type": "string",
									"description": "Return which validator failed"
								}
							}
						}
					},
					"404": {
						"description": "No project with this id",
						"schema": {
							"type": "object",
							"properties": {
								"message": {
									"type": "string",
									"description": "Error details"
								}
							}
						}
					}
				},
				"security": [{
					"Bearer": []
				}]
			}
		},
		"/project/": {
			"post": {
				"summary": "Create a project",
				"tags": ["Secured by token"],
				"parameters": [{
					"name": "body",
					"in": "body",
					"description": "Project data",
					"required": true,
					"schema": {
						"type": "object",
						"$ref": "#/definitions/project"
					}
				}],
				"responses": {
					"200": {
						"description": "Object succeffully created",
						"schema": {
							"type": "object",
							"$ref": "#/definitions/project"
						}
					},
					"400": {
						"description": "Data validator failed",
						"schema": {
							"type": "object",
							"properties": {
								"message": {
									"type": "string",
									"description": "Details about validator faillure"
								}
							}
						}
					},
					"500": {
						"description": "Internal server error",
						"schema": {
							"type": "object",
							"properties": {
								"message": {
									"type": "string"
								}
							}
						}
					}
				},
				"security": [{
					"Bearer": []
				}]
			},
			"get": {
				"summary": "Get all projects",
				"tags": ["Secured by token"],
				"responses": {
					"200": {
						"description": "Projects have been found and sended",
						"schema": {
							"type": "object",
							"properties": {
								"logReports": {
									"type": "array",
									"items": {
										"$ref": "#/definitions/project"
									}
								}
							}
						}
					},
					"404": {
						"description": "No processes founds",
						"schema": {
							"type": "object",
							"properties": {
								"message": {
									"type": "string"
								}
							}
						}
					}
				},
				"security": [{
					"Bearer": []
				}]
			}
		},
		"/project/{id}": {
			"parameters": [{
				"name": "id",
				"in": "path",
				"type": "string",
				"description": "Id of the project",
				"required": true
			}],
			"get": {
				"summary": "Get a process by his id",
				"tags": ["Secured by token"],
				"responses": {
					"200": {
						"description": "Project found and return in response",
						"schema": {
							"type": "object",
							"$ref": "#/definitions/project"
						}
					},
					"400": {
						"description": "Data valivator failed",
						"schema": {
							"type": "object",
							"properties": {
								"message": {
									"type": "string",
									"description": "Return which validator failed"
								}
							}
						}
					},
					"404": {
						"description": "No project with this id",
						"schema": {
							"type": "object",
							"properties": {
								"message": {
									"type": "string",
									"description": "Error details"
								}
							}
						}
					}
				},
				"security": [{
					"Bearer": []
				}]
			},
			"delete": {
				"summary": "Delete a project by his id",
				"tags": ["Secured by token"],
				"responses": {
					"200": {
						"description": "Project found and deleted",
						"schema": {
							"type": "object",
							"properties": {
								"message": {
									"type": "string"
								}
							}
						}
					},
					"400": {
						"description": "Data validator failed",
						"schema": {
							"type": "object",
							"properties": {
								"message": {
									"type": "string",
									"description": "Details about which validator failed"
								}
							}
						}
					},
					"404": {
						"description": "Project not found with id provided",
						"schema": {
							"type": "object",
							"properties": {
								"message": {
									"type": "string",
									"description": "Error details"
								}
							}
						}
					},
					"500": {
						"description": "Internal server error",
						"schema": {
							"type": "object",
							"properties": {
								"message": {
									"type": "string",
									"description": "Error detail"
								}
							}
						}
					}
				},
				"security": [{
					"Bearer": []
				}]
			},
			"put": {
				"summary": "Update a project by his id",
				"tags": ["Secured by token"],
				"parameters": [
					{
						"name": "body",
						"in": "body",
						"description": "Data of the project we want to update",
						"required": true,
						"schema": {
							"type": "object",
							"properties": {
								"projectName": {
									"type": "string"
								}
							}
						}
					}
				],
				"responses": {
					"200": {
						"description": "Project found and modified",
						"schema": {
							"type": "object",
							"$ref": "#/definitions/project"
						}
					},
					"400": {
						"description": "Data validator failed",
						"schema": {
							"type": "object",
							"properties": {
								"message": {
									"type": "string",
									"description": "Detail of which validator failed"
								}
							}
						}
					},
					"404": {
						"description": "Project not found with this id",
						"schema": {
							"type": "object",
							"properties": {
								"message": {
									"type": "string"
								}
							}
						}
					}
				},
				"security": [{
					"Bearer": []
				}]
			}
		},
		"/project/{id}/processes": {
			"parameters": [{
				"name": "id",
				"in": "path",
				"type": "string",
				"description": "Id of the project",
				"required": true
			}],
			"get": {
				"summary": "Get all processes of a project",
				"tags": ["Secured by token"],
				"responses": {
					"200": {
						"description": "Project found and return in response",
						"schema": {
							"type": "object",
							"properties": {
								"logReports": {
									"type": "array",
									"items": {
										"$ref": "#/definitions/process"
									}
								}
							}
						}
					},
					"400": {
						"description": "Data valivator failed",
						"schema": {
							"type": "object",
							"properties": {
								"message": {
									"type": "string",
									"description": "Return which validator failed"
								}
							}
						}
					},
					"404": {
						"description": "No project with this id",
						"schema": {
							"type": "object",
							"properties": {
								"message": {
									"type": "string",
									"description": "Error details"
								}
							}
						}
					}
				},
				"security": [{
					"Bearer": []
				}]
			}
		}
	},
	"definitions": {
  		"logReport": {
			"type": "object",
			"required": [
  				"processName",
				"logType"
			],
			"properties": {
				"processName": {
					"type": "string"
				},
				"projectName": {
					"type": "string"
				},
				"logType": {
					"type": "string"
				},
				"throwDate": {
					"type": "string",
					"description": "Date",
					"default": "now"
				},
				"details": {
					"type": "string"
				},
				"error": {
					"type": "number",
					"description": "0 -> success, 1 -> undefined, 2 -> notice, 3 -> warning, 4 -> error",
					"default": "0"
				}
			}
		},
		"process": {
			"type": "object",
			"required": [
  				"processName",
				"projectName"
			],
			"properties": {
  				"processName": {
					"type": "string"
				},
				"projectName": {
					"type": "string"
				},
				"description": {
					"type": "string"
				},
				"expectedTime": {
					"type": "string"
				}
			}
		},
		"project": {
			"type": "object",
			"required": [
  				"projectName"
			],
			"properties": {
				"projectName": {
					"type": "string"
				}
			}
		},
		"user": {
			"type": "object",
			"required": [
  				"fullName",
				"email"
			],
			"properties": {
				"fullName": {
					"type": "string"
				},
				"email": {
					"type": "string"
				},
				"password": {
					"type": "string",
					"minLength": 8
				}

			}
		}
	}
}
